
---- 1 ---- Initialisation


---- 2 ---- Job informations

Begin time    : /09/1976
End   time    : /09/1976
Domain        : GRc (/climato_tmp1/fettweis/MAR/sim/GRc)

Date          : Sun Jan  1 01:18:23 CET 2017
Host          : srv4
Work directory: /scratch/fettweis/MARrun
Messages in   : /climato_tmp1/fettweis/MAR/msg
