
 Labels MAR repris sans commentaires
 ^^^^^^^^^^^^^^^^^^^^^^^^^^^^^^^^^^^
 Numero | Label   
 -------+---------
      1 |      #AO
      2 |      #MP
      3 |      #rt
      4 |      #DB
      5 |      #XF
      6 |      #db
      7 |      #SY
      8 |      #KQ
      9 |      #  
     10 |      #L1
     11 |      #rf
     12 |      #AP
     13 |      #PP
     14 |      #sn
     15 |      #po
     16 |      #VX
     17 |      #DU
     18 |      #ww
     19 |      #WF
     20 |      #NP
     21 |      #SD
     22 |      #TZ
     23 |      #IA
     24 |      #AW
     25 |      #AH
     26 |      #CE
     27 |      #FS
     28 |      #IN
     29 |      #YR
     30 |      _SC
     31 |      #SP
     32 |      #B2
     33 |      #AC
     34 |      #QB
     35 |      #MC
     36 |      #MD
     37 |      #VA
     38 |      #NS
     39 |      #VQ
     40 |      #KT
     41 |      #82
     42 |      #RI
     43 |      #AL
     44 |      #BO
     45 |      #WT
     46 |      #Zn
     47 |      #zn
     48 |      #_I
     49 |      #VI
     50 |      #WS
     51 |      #qe
     52 |      #se
     53 |      _ZF
     54 |      #KF
     55 |      #th
     56 |      #1D
     57 |      #!!
     58 |      #GW
     59 |      #GU
     60 |      #xx
     61 |      #TW
     62 |      #gu
     63 |      _ke
     64 |      #wH
     65 |      #VW
     66 |      #LO
     67 |      #SC
     68 |      #rc
     69 |      #hb
     70 |      #wh
     71 |      #cn
     72 |      #up
     73 |      #ur
     74 |      #hs
     75 |      #wi
     76 |      #a1
     77 |      #kl
     78 |      #Vw
     79 |      #w+
     80 |      #PC
     81 |      #6k
     82 |      #10
     83 |      #A3
     84 |      #X 
     85 |      #NC
     86 |      #VR
     87 |      #WI
     88 |      #AA
     89 |      #VM
     90 |      #kd
     91 |      #ER
     92 |      #sw
     93 |      #EU
     94 |      #MG
     95 |      #FL
     96 |      #E0
     97 |      #EF
     98 |      #EC
     99 |      #zs
    100 |      #tz
    101 |      #MB
    102 |      #US
    103 |      #TU
    104 |      #BA
    105 |      #BY
    106 |      #La
    107 |      #II
    108 |      #HB
    109 |      #cp
    110 |      #cz
    111 |      #sv
    112 |      #wr
    113 |      #w1
    114 |      #ZX
    115 |      #zx
    116 |      #ss
    117 |      #ae
    118 |      #IX
    119 |      #gs
    120 |      #HC
    121 |      #NN
    122 |      #RC
    123 |      #??
    124 |      #DL
    125 |      #KW
    126 |      #PW
    127 |      #SU
    128 |      #VH
    129 |      #aH
    130 |      #BP
    131 |      #mw
    132 |      #gh
    133 |      #ED
    134 |      _UQ
    135 |      ###
    136 |      #BM
    137 |      _AS
    138 |      _CP
    139 |      #F 
    140 |      #CI
    141 |      #OA
    142 |      #IF
    143 |      #IZ
    144 |      #SO
    145 |      #OD
    146 |      #vO

 Sous-routines et fonctions presentes dans le code
 ^^^^^^^^^^^^^^^^^^^^^^^^^^^^^^^^^^^^^^^^^^^^^^^^^
       Routine       1e ligne
  1 0  PHYmar               5036
  2 0  TIMcur               5165
  3 0  TIMgeo               5215
  4 0  TIMcor               5322
  5 0  GRDsig               5379
  6 0  GRDmar               5648
  7 0  GRDgeo               6067
  8 0  GRDstr               6389
  9 0  INIgen               6699
 10 0  INIphy               8516
 11 0  INIlbc               8829
 12 0  INIsnd               9268
 13 0  INIsnd_th           10762
 14 0  INIsnd_vl           10926
 15 0  INIsnd_PV           11082
 16 0  INIubc              11403
 17 0  INIpen              11598
 18 0  DYNrho              11824
 19 0  DYNloa              11910
 20 0  DYNgpo              12094
 21 0  DYNgpo_mp           12200
 22 0  DYNdps              12306
 23 0  DYNdps_mp           13699
 24 0  ADVbot_4            15076
 25 0  DYNdps_cor          15247
 26 0  DYNdgz_mp           15400
 27 0  DYNdgz              16035
 28 0  DYNadv_dLF          16673
 29 0  DYNadv_dLF_mp       16840
 30 0  DYNdmp              17014
 31 0  DYN_NH              17234
 32 0  MARgx11mx1my        18499
 33 0  MARgy11mx1my        18575
 34 0  MARgx_1mx1my        18651
 35 0  MARgy_1mx1my        18735
 36 0  MARgz_1mx1my        18819
 37 0  MARgz_2mx1y1        18897
 38 0  MARgau_x            18975
 39 0  MARgau_y            19059
 40 0  MARgau_z            19143
 41 0  DYNfil_NH           19221
 42 0  TURvNH              19447
 43 0  LBCnud_000          19720
 44 0  DYNwww              19992
 45 0  DYNadv_LFB          20106
 46 0  DYNadv_LFB_2s       20641
 47 0  DYNadv_LFB_2p       21154
 48 0  DYNadv_LFB_2v       21679
 49 0  DYNadv_hor          22108
 50 0  DYNadv_sal          22874
 51 0  DYNadv_cubh         22993
 52 0  TRCadv_hor          23109
 53 0  DYNadv_ver          23459
 54 0  DYNadv_cubv         24741
 55 0  DYNadv_verq         24896
 56 0  HYDadv_ver          25812
 57 0  DYNfil_1D           27978
 58 0  DYNfil_1D0          28101
 59 0  tlat                28226
 60 0  DYNfil_2H           28287
 61 0  DYNfil_2H0          28480
 62 0  DYNfil_3D_mp        28709
 63 0  DYNfil_3D           28971
 64 0  DYNfilv3D           29229
 65 0  DYNfil_3D0          29639
 66 0  DYNqqm              29943
 67 0  DYNqqm              29948
 68 0  TURhor_kh           30221
 69 0  TURhor_dyn          30476
 70 0  TURtke_gen          31934
 71 0  TURtke_advh         32997
 72 0  TURtke_advv         33133
 73 0  TURtke_difh         33265
 74 0  TURtke_difv         33434
 75 0  TURpbl_25           33741
 76 0  tridag              35375
 77 0  TURsbl              35441
 78 1  psim                36537
 79 1  psih                36594
 80 1  phim                36650
 81 1  phih                36704
 82 0  TURabl              36759
 83 0  TURabl_TC           38341
 84 0  TURgau_v            38588
 85 0  TUR_2m              38663
 86 0  CVAorg              38867
 87 0  CVAgen_MAR          38939
 88 0  conv_adjust         38996
 89 0  CVAdia              41184
 90 0  TQsCVA              41455
 91 0  CVATrZ              41589
 92 1  Qs_CVA              41646
 93 1  TeqCVA              41701
 94 1  GlaCVA              41754
 95 0  CVAgen_MNH          41790
 96 0  cva_filtering       42577
 97 0  CVAgen_GCM          42650
 98 0  HYDgen              43980
 99 0  HYDmic              44676
100 0  H2O_WB              48645
101 0  H2O_WB              48650
102 0  DUST                49692
103 0  TRCadv_ver          49800
104 0  POSfil              50662
105 0  LBC000_run          50934
106 0  LBCrad_atm          51015
107 0  LBCnud_ini          51225
108 0  LBCnud_par          51309
109 0  matinv              51612
110 0  LBCnud_atm          51731
111 0  LBCnud_srf          52128
112 0  qsat2D              52218
113 0  qsat3D              52340
114 1  qsat0D              52469
115 1  qse_0D              52536
116 0  PHYrad_LMD          52618
117 0  PHYrad_MAR          53200
118 0  PHYrad_int          53353
119 0  PHYrad_sol          53894
120 0  fluxae              54711
121 0  flux2               54822
122 0  tttt                54914
123 0  iniso               54968
124 0  PHYrad_IR           55030
125 0  data2i              55634
126 0  hornel              55751
127 0  cloudy              55807
128 0  PHYrad_top          55936
129 0  SSpray              56512
130 0  SSpray              56517
131 0  PHY_SISVAT          56677
132 0  PHY_SISVAT_MP       58923
133 0  SISVAT_ini          61258
134 0  SISVAT              61568
135 0  SISVAT_BSn          63593
136 0  SISVAT_BDu          64164
137 0  SISVAT_SIc          64275
138 0  SISVAT_zSn          64415
139 0  SISVAT_zCr          65266
140 0  SISVAT_zAg          65439
141 0  SnOptP              65688
142 0  VgOptP              66289
143 0  ColPrt_SBL          66672
144 0  SISVATeSBL          66801
145 0  SISVAT_SBL          67383
146 0  SISVAT_TVg          67617
147 0  SISVAT_TSo          67937
148 0  SISVAT_qVg          68548
149 0  SISVAT_qSn          68776
150 0  SISVAT_GSn          69526
151 0  SISVAT_qSo          70507
152 0  SISVAT_wEq          71239
153 0  PHY_KDsvat          71342
154 0  SRFfrm_sea          71588
155 0  SRFfrm_sice         71825
156 0  SRFfrm_sno          72132
157 0  SRFini_sno          72572
158 0  SRFmod_sno          73363
159 0  analyse             76599
160 1  SRFdtp_sno          76745
161 0  SRFstr_sic          76851
162 1  SRFcri_agr          77280
163 1  SRFcri_ded          77355
164 0  SRFagr_sno          77411
165 0  SRFagr_sic          77556
166 0  SRFagr_ice          77624
167 0  SRFspl_ice          77709
168 0  SRFmtm_sno          77763
169 1  SRFang_sno          78353
170 1  SRFdia_sno          78470
171 0  SRFalb_sno          78555
172 0  SRFalb_sno          78560
173 0  SRFext_sno          78678
174 0  SRFext_sno          78683
175 0  SRFfrm_soil         78780
176 0  svat                79368
177 0  SVAsav              81197
178 0  INIglf              81658
179 0  INIsic              81840
180 0  OASIS_2_MAR         82009
181 0  OASIS_2_MAR         82013
182 0  MAR_2_OASIS         82089
183 0  MAR_2_OASIS         82093
184 0  SRFini_pol          82265
185 0  SRFmod_pol          82482
186 0  OUTsav              83996
187 0  OUTgks              84350
188 0  OUT_nc              84610
189 0  OUTlmw              85615
190 0  ANAlmw              85984
191 0  dynbil              86144
192 0  OUTice              86670
193 0  PBLtop              89082
194 1  ou2sGE              89273
195 0  time_steps          89300
196 0  FILatmo             89391
197 0  interp_subpix       89512
198 0  relrea              89736

 Sous-routines et fonctions utilisees dans le code
 ^^^^^^^^^^^^^^^^^^^^^^^^^^^^^^^^^^^^^^^^^^^^^^^^^
       Routine       1e ligne
  1 0  y                     509
  2 0  relrea                686
  3 0  PHYmar                713
  4 0  INIgen                926
  5 0  OUT_nc               1057
  6 0  SBCnew               1118
  7 0  FILatmo              1119
  8 0  time_steps           1123
  9 0  DYNgpo_mp            1269
 10 0  DYNgpo               1273
 11 0  DYNdps_mp            1295
 12 0  DYNdps               1299
 13 0  DYNfil_1D            1356
 14 0  DYNfil_3D            1373
 15 1  DYNfilv3D            1379
 16 0  DYNgpo_mp            1409
 17 1  DYNgpo               1413
 18 0  DYNdgz_mp            1435
 19 0  DYNdgz               1439
 20 0  DYNfil_1D            1484
 21 0  DYNfil_3D_mp         1524
 22 0  DYNfil_3D            1528
 23 0  DYNfilv3D            1534
 24 0  DYNfil_3D_mp         1562
 25 1  DYNfil_3D            1566
 26 0  DYNfilv3D            1573
 27 0  DYNfil_1D            1622
 28 0  DYNfil_3D_mp         1663
 29 0  DYNfil_3D            1667
 30 1  DYNfilv3D            1674
 31 1  DYNadv_LFB           1892
 32 0  DYNadv_ver           1916
 33 0  DYNadv_verq          1929
 34 0  HYDadv_ver           1939
 35 0  DYNadv_hor           1966
 36 0  DYNadv_hor           1970
 37 0  DYNadv_hor           1988
 38 0  DYNadv_hor           2002
 39 0  DYNadv_hor           2008
 40 1  DYNadv_hor           2013
 41 1  DYNadv_hor           2018
 42 1  DYNadv_hor           2023
 43 0  DYNadv_hor           2028
 44 0  DYNgpo_mp            2147
 45 0  DYNgpo               2151
 46 0  DYNrho               2193
 47 0  qsat3D               2205
 48 0  DYNwww               2214
 49 0  TURhor_kh            2320
 50 1  TURhor_dyn           2331
 51 1  DYNloa               2350
 52 1  TURtke_advh          2394
 53 0  TURtke_advv          2395
 54 1  TURtke_difh          2396
 55 0  TURtke_difv          2397
 56 0  TURtke_gen           2398
 57 0  CVAorg               2447
 58 1  TURabl               2470
 59 0  SSpray               2471
 60 1  HYDgen               2615
 61 1  INIlbc               2691
 62 0  INIubc               2692
 63 0  LBCnud_par           2700
 64 0  INIsnd               2712
 65 1  LBCnud_par           2720
 66 0  LBCnud_atm           2781
 67 0  LBCnud_atm           2855
 68 0  DYNfil_1D            2882
 69 0  DYNfil_3D_mp         2900
 70 0  DYNfil_3D            2904
 71 0  DYNfilv3D            2911
 72 0  LBCnud_atm           2957
 73 0  DYNfil_1D            2984
 74 0  DYNfil_3D_mp         3007
 75 1  DYNfil_3D            3011
 76 1  DYNfilv3D            3018
 77 1  DYNqqm               3052
 78 1  LBCnud_atm           3068
 79 1  DYNfil_1D            3096
 80 1  DYNfil_3D_mp         3114
 81 1  DYNfil_3D            3118
 82 0  DYNfilv3D            3125
 83 1  DYNqqm               3145
 84 1  LBCnud_atm           3183
 85 1  DYNfil_1D            3210
 86 0  DYNfil_3D_mp         3228
 87 1  DYNfil_3D            3232
 88 1  DYNfilv3D            3239
 89 1  DYNqqm               3381
 90 1  LBCnud_000           3387
 91 1  DYNfil_1D            3403
 92 1  DYNfil_3D_mp         3421
 93 1  DYNfil_3D            3425
 94 1  DYNfilv3D            3432
 95 0  DYNqqm               3452
 96 0  DYNqqm               3481
 97 1  LBCnud_000           3487
 98 0  DYNfil_1D            3503
 99 0  DYNfil_3D_mp         3521
100 1  DYNfil_3D            3525
101 1  DYNfilv3D            3532
102 1  DYNqqm               3552
103 1  DYNqqm               3581
104 1  LBCnud_000           3587
105 1  DYNfil_1D            3603
106 1  DYNfil_3D_mp         3621
107 0  DYNfil_3D            3625
108 0  DYNfilv3D            3632
109 0  DYNqqm               3652
110 0  DYNqqm               3681
111 0  LBCnud_000           3687
112 0  DYNfil_1D            3703
113 0  DYNfil_3D_mp         3721
114 1  DYNfil_3D            3725
115 1  DYNfilv3D            3732
116 1  DYNqqm               3752
117 1  DYNqqm               3781
118 1  LBCnud_000           3787
119 1  DYNfil_1D            3803
120 1  DYNfil_3D_mp         3821
121 1  DYNfil_3D            3825
122 1  DYNfilv3D            3832
123 1  DYNqqm               3852
124 1  PHYrad_top           4189
125 1  PHYrad_CEP           4195
126 1  PHYrad_CEP_mp        4196
127 1  PHYrad_CEP_mp        4200
128 0  PHYrad_CEP           4205
129 0  PHY_SISVAT_MP        4220
130 0  PHY_SISVAT           4225
131 0  PHY_KDsvat           4234
132 0  LBCnud_srf           4280
133 0  TIMgeo               4358
134 0  TIMcur               4359
135 0  OUTice               4388
136 1  DYNwww               4597
137 0  OUT_nc               4637
138 0  OUTgks               4643
139 0  OUTsav               4655
140 0  SBCnew               4710
141 0  SVAsav               6953
142 0  ice_sheet_model      7557
143 1  GRDmar               7619
144 0  GRDgeo               7627
145 1  TIMcur               7635
146 0  TIMgeo               7636
147 0  LBCnud_ini           7687
148 0  LBCnud_par           7691
149 0  SVAsav               7814
150 0  DYNgpo               8181
151 0  INIphy               8190
152 0  DYNloa               8198
153 0  GRDsig               8241
154 1  GRDmar               8249
155 1  GRDgeo               8257
156 1  TIMcur               8265
157 1  TIMgeo               8266
158 1  INIsnd               8274
159 1  LBCnud_ini           8278
160 1  LBCnud_par           8282
161 1  INIphy               8300
162 1  DYNloa               8308
163 1  DYNgpo_mp            8371
164 1  DYNgpo               8375
165 1  DYNrho               8464
166 1  INIsnd_th            9792
167 1  INIsnd_vl            9860
168 1  INIsnd_th           10204
169 1  INIsnd_th           10253
170 1  INIsnd_th           10315
171 1  INIsnd_th           10360
172 1  INIsnd_vl           10446
173 1  TIMcor              10713
174 1  MARgau_x            12604
175 1  MARgau_y            12644
176 1  ADVbot_4            13345
177 0  ADVbot_4            13395
178 0  MARgau_x            13997
179 0  MARgau_y            14037
180 1  ADVbot_4            14741
181 1  ADVbot_4            14791
182 1  DYNadv_dLF_mp       15507
183 1  DYNadv_dLF          15511
184 1  DYNadv_dLF_mp       15526
185 1  DYNadv_dLF          15530
186 0  DYNadv_dLF          16138
187 0  DYNadv_dLF          16149
188 0  DYNadv_LFB_2s       20203
189 1  DYNadv_LFB_2v       20208
190 1  DYNadv_LFB_2s       20242
191 1  DYNadv_LFB_2v       20248
192 0  DYNadv_LFB_2p       20285
193 0  DYNadv_LFB_2s       20289
194 1  DYNadv_LFB_2v       20295
195 0  DYNadv_LFB_2p       20332
196 0  DYNadv_LFB_2s       20336
197 0  DYNadv_LFB_2v       20343
198 0  DYNadv_LFB_2p       20379
199 0  DYNadv_LFB_2s       20383
200 0  DYNadv_LFB_2v       20390
201 0  DYNadv_LFB_2p       20425
202 0  DYNadv_LFB_2s       20429
203 0  DYNadv_LFB_2v       20436
204 0  DYNadv_LFB_2p       20471
205 0  DYNadv_LFB_2s       20475
206 0  DYNadv_LFB_2v       20482
207 0  DYNadv_LFB_2p       20517
208 0  DYNadv_LFB_2s       20521
209 0  DYNadv_LFB_2v       20528
210 0  DYNadv_LFB_2p       20563
211 0  DYNadv_LFB_2s       20567
212 0  DYNadv_LFB_2v       20574
213 0  tlat                28090
214 0  MARgx11mx1my        29545
215 0  MARgx_1mx1my        29551
216 0  MARgy11mx1my        29598
217 0  MARgy_1mx1my        29604
218 0  MARgz_1mx1my        33627
219 0  MARgz_1mx1my        33710
220 0  MARgz_2mx1y1        37087
221 0  MARgz_2mx1y1        37217
222 0  MARgz_2mx1y1        37427
223 0  MARgz_2mx1y1        37561
224 0  MARgz_2mx1y1        37811
225 0  MARgz_2mx1y1        37870
226 0  MARgz_2mx1y1        37950
227 0  MARgz_2mx1y1        38028
228 0  MARgz_2mx1y1        38156
229 0  CVAgen_MNH          38924
230 0                          0
231 0  CONVECTION          42271
232 0  CONVECTION          42342
233 0  cva_filtering       42429
234 0  cva_filtering       42444
235 0  cva_filtering       42445
236 0  cva_filtering       42446
237 0  cva_filtering       42447
238 0  qsat3D              44159
239 0  qsat3D              44182
240 0  HYDmic              44339
241 0  HYDmic              44403
242 0  y-Based             44967
243 0  qsat2D              45230
244 0  y                   48402
245 0  TIMcor              48557
246 0  matinv              51394
247 0  SISVAT_ini          57084
248 0  INIsic              57465
249 0  INIglf              57478
250 0  interp_subpix       57673
251 0  interp_subpix       57678
252 0  SISVAT              58096
253 0  SISVAT_ini          59335
254 0  INIsic              59716
255 0  INIglf              59729
256 0  interp_subpix       59866
257 0  interp_subpix       59871
258 0  SISVAT              60329
259 0  SISVAT_BSn          62222
260 0  SISVAT_BSn          62225
261 0  SISVAT_wEq          62231
262 0  SISVAT_SIc          62239
263 0  SISVAT_wEq          62244
264 0  SISVAT_zSn          62542
265 0  SISVAT_zSn          62547
266 0  SISVAT_wEq          62552
267 0  SnOptP              62675
268 0  SISVAT_wEq          62687
269 0  VgOptP              62695
270 0  SISVATeSBL          63058
271 0  SISVAT_TVg          63079
272 0  SISVAT_TSo          63097
273 0  SISVAT_wEq          63102
274 0  SISVAT_qVg          63129
275 0  SISVAT_qSn          63149
276 0  SISVAT_wEq          63157
277 0  SISVAT_qSo          63213
278 0  SISVAT_GSn          63251
279 0  SISVAT_GSn          63256
280 0  SISVAT_wEq          63261
281 0  SISVAT_zAg          64109
282 0  SISVAT_zCr          64695
283 0  SISVAT_zAg          64781
284 0  SISVAT_zCr          65071
285 0  SISVAT_zAg          65142
286 0  INIglf              71408
287 0  ice_sheet_model     81551
288 0  SVAsav              84320
289 0                          0
290 0  _outice             86735
291 0  _outice=4)          86736
292 0  of                  86737
293 0  _outice             87463
294 0  ed                  87464
295 0  PBLtop              87698
296 0  _outice             88071
297 0  ed                  88072
298 0  _outice)>=86400     88336
299 0  _outice*dt/60.)     88339
300 0  _outice=1           88342
301 0  UNclose             89072
302 0  date_and_time       89372
303 0  date_and_time       89373
304 0  GRDstr               6145
305 0  GRDstr               6254

                FIN LECTURE, OUTPUT complet : MAR___.pp1
                Nombre total de lignes      : 90635

 Routine no  1 Ligne no 5036 PHYmar         
 Routine no  2 Ligne no 5165 TIMcur         
 Routine no  3 Ligne no 5215 TIMgeo         
 Routine no  4 Ligne no 5322 TIMcor         
 Routine no  5 Ligne no 5379 GRDsig         
 Routine no  6 Ligne no 5648 GRDmar         
 Routine no  7 Ligne no 6067 GRDgeo         
 Routine no  8 Ligne no 6389 GRDstr         
 Routine no  9 Ligne no 6699 INIgen         
 Routine no 10 Ligne no 8516 INIphy         
 Routine no 11 Ligne no 8829 INIlbc         
 Routine no 12 Ligne no 9268 INIsnd         
 Routine no 13 Ligne no10762 INIsnd_th      
 Routine no 14 Ligne no10926 INIsnd_vl      
 Routine no 16 Ligne no11403 INIubc         
 Routine no 18 Ligne no11824 DYNrho         
 Routine no 19 Ligne no11910 DYNloa         
 Routine no 20 Ligne no12094 DYNgpo         
 Routine no 21 Ligne no12200 DYNgpo_mp      
 Routine no 22 Ligne no12306 DYNdps         
 Routine no 23 Ligne no13699 DYNdps_mp      
 Routine no 24 Ligne no15076 ADVbot_4       
 Routine no 26 Ligne no15400 DYNdgz_mp      
 Routine no 27 Ligne no16035 DYNdgz         
 Routine no 28 Ligne no16673 DYNadv_dLF     
 Routine no 29 Ligne no16840 DYNadv_dLF_mp  
 Routine no 32 Ligne no18499 MARgx11mx1my   
 Routine no 33 Ligne no18575 MARgy11mx1my   
 Routine no 34 Ligne no18651 MARgx_1mx1my   
 Routine no 35 Ligne no18735 MARgy_1mx1my   
 Routine no 36 Ligne no18819 MARgz_1mx1my   
 Routine no 37 Ligne no18897 MARgz_2mx1y1   
 Routine no 38 Ligne no18975 MARgau_x       
 Routine no 39 Ligne no19059 MARgau_y       
 Routine no 43 Ligne no19720 LBCnud_000     
 Routine no 44 Ligne no19992 DYNwww         
 Routine no 45 Ligne no20106 DYNadv_LFB     
 Routine no 46 Ligne no20641 DYNadv_LFB_2s  
 Routine no 47 Ligne no21154 DYNadv_LFB_2p  
 Routine no 48 Ligne no21679 DYNadv_LFB_2v  
 Routine no 49 Ligne no22108 DYNadv_hor     
 Routine no 53 Ligne no23459 DYNadv_ver     
 Routine no 55 Ligne no24896 DYNadv_verq    
 Routine no 56 Ligne no25812 HYDadv_ver     
 Routine no 57 Ligne no27978 DYNfil_1D      
 Routine no 59 Ligne no28226 tlat           
 Routine no 62 Ligne no28709 DYNfil_3D_mp   
 Routine no 63 Ligne no28971 DYNfil_3D      
 Routine no 64 Ligne no29229 DYNfilv3D      
 Routine no 66 Ligne no29943 DYNqqm         
 Routine no 67 Ligne no29948 DYNqqm         
 Routine no 68 Ligne no30221 TURhor_kh      
 Routine no 69 Ligne no30476 TURhor_dyn     
 Routine no 70 Ligne no31934 TURtke_gen     
 Routine no 71 Ligne no32997 TURtke_advh    
 Routine no 72 Ligne no33133 TURtke_advv    
 Routine no 73 Ligne no33265 TURtke_difh    
 Routine no 74 Ligne no33434 TURtke_difv    
 Routine no 78 Ligne no36537 psim           
 Routine no 79 Ligne no36594 psih           
 Routine no 80 Ligne no36650 phim           
 Routine no 81 Ligne no36704 phih           
 Routine no 82 Ligne no36759 TURabl         
 Routine no 86 Ligne no38867 CVAorg         
 Routine no 92 Ligne no41646 Qs_CVA         
 Routine no 93 Ligne no41701 TeqCVA         
 Routine no 94 Ligne no41754 GlaCVA         
 Routine no 95 Ligne no41790 CVAgen_MNH     
 Routine no 96 Ligne no42577 cva_filtering  
 Routine no 98 Ligne no43980 HYDgen         
 Routine no 99 Ligne no44676 HYDmic         
 Routine no107 Ligne no51225 LBCnud_ini     
 Routine no108 Ligne no51309 LBCnud_par     
 Routine no109 Ligne no51612 matinv         
 Routine no110 Ligne no51731 LBCnud_atm     
 Routine no111 Ligne no52128 LBCnud_srf     
 Routine no112 Ligne no52218 qsat2D         
 Routine no113 Ligne no52340 qsat3D         
 Routine no114 Ligne no52469 qsat0D         
 Routine no115 Ligne no52536 qse_0D         
 Routine no128 Ligne no55936 PHYrad_top     
 Routine no129 Ligne no56512 SSpray         
 Routine no130 Ligne no56517 SSpray         
 Routine no131 Ligne no56677 PHY_SISVAT     
 Routine no132 Ligne no58923 PHY_SISVAT_MP  
 Routine no133 Ligne no61258 SISVAT_ini     
 Routine no134 Ligne no61568 SISVAT         
 Routine no135 Ligne no63593 SISVAT_BSn     
 Routine no137 Ligne no64275 SISVAT_SIc     
 Routine no138 Ligne no64415 SISVAT_zSn     
 Routine no139 Ligne no65266 SISVAT_zCr     
 Routine no140 Ligne no65439 SISVAT_zAg     
 Routine no141 Ligne no65688 SnOptP         
 Routine no142 Ligne no66289 VgOptP         
 Routine no144 Ligne no66801 SISVATeSBL     
 Routine no146 Ligne no67617 SISVAT_TVg     
 Routine no147 Ligne no67937 SISVAT_TSo     
 Routine no148 Ligne no68548 SISVAT_qVg     
 Routine no149 Ligne no68776 SISVAT_qSn     
 Routine no150 Ligne no69526 SISVAT_GSn     
 Routine no151 Ligne no70507 SISVAT_qSo     
 Routine no152 Ligne no71239 SISVAT_wEq     
 Routine no153 Ligne no71342 PHY_KDsvat     
 Routine no160 Ligne no76745 SRFdtp_sno     
 Routine no162 Ligne no77280 SRFcri_agr     
 Routine no163 Ligne no77355 SRFcri_ded     
 Routine no169 Ligne no78353 SRFang_sno     
 Routine no170 Ligne no78470 SRFdia_sno     
 Routine no177 Ligne no81197 SVAsav         
 Routine no178 Ligne no81658 INIglf         
 Routine no179 Ligne no81840 INIsic         
 Routine no186 Ligne no83996 OUTsav         
 Routine no187 Ligne no84350 OUTgks         
 Routine no188 Ligne no84610 OUT_nc         
 Routine no192 Ligne no86670 OUTice         
 Routine no193 Ligne no89082 PBLtop         
 Routine no194 Ligne no89273 ou2sGE         
 Routine no195 Ligne no89300 time_steps     
 Routine no196 Ligne no89391 FILatmo        
 Routine no197 Ligne no89512 interp_subpix  

                Fichier OUTPUT MAR___.for   : 60339 lignes

 Labels Enleves :
 ================
   #DA   #VN   #vN   #RF   #HY   #HV   #HW   #vH   #hy   #NV
   #TA   #TD   #KA   #KC   #GL   #TZ   #II   #XF   #up   #SU
   #FI   #TI   #QE   #AA   #AW   #AH   #vK   #ZS   #SY   #ZM
   #vZ   #CA   #PB   #TW   #ca   #pb   #EE   #sa   #TV   #vV
   #SN   #CZ   #SD   #vS   #SI   #IP   #GP   #IB   #ZA   #ZN
   #PP   #SB   #ID   #UL   #HP   #vL   #MP
